$date
	Mon Nov 16 18:28:53 2020
$end
$version
	Icarus Verilog
$end
$timescale
	1s
$end
$scope module enc4_2_tb $end
$var wire 1 ! zero $end
$var wire 2 " y [1:0] $end
$var reg 4 # d [3:0] $end
$scope module cut1 $end
$var wire 4 $ d [3:0] $end
$var reg 2 % y [1:0] $end
$var reg 1 ! zero $end
$scope begin $ivl_for_loop1 $end
$var integer 32 & i [31:0] $end
$upscope $end
$upscope $end
$scope begin $ivl_for_loop0 $end
$var integer 32 ' i [31:0] $end
$upscope $end
$upscope $end
$enddefinitions $end
#0
$dumpvars
b0 '
bx &
b0 %
b0 $
b0 #
b0 "
1!
$end
#5
b1 '
#10
b1000 &
0!
b10 '
b1 #
b1 $
#15
b1 "
b1 %
b1000 &
b11 '
b10 #
b10 $
#20
b1 "
b1 %
b1000 &
b100 '
b11 #
b11 $
#25
b10 "
b10 %
b1000 &
b101 '
b100 #
b100 $
#30
b10 "
b10 %
b1000 &
b110 '
b101 #
b101 $
#35
b10 "
b10 %
b1000 &
b111 '
b110 #
b110 $
#40
b10 "
b10 %
b1000 &
b1000 '
b111 #
b111 $
#45
b11 "
b11 %
b1000 &
b1001 '
b1000 #
b1000 $
#50
b11 "
b11 %
b1000 &
b1010 '
b1001 #
b1001 $
#55
b11 "
b11 %
b1000 &
b1011 '
b1010 #
b1010 $
#60
b11 "
b11 %
b1000 &
b1100 '
b1011 #
b1011 $
#65
b11 "
b11 %
b1000 &
b1101 '
b1100 #
b1100 $
#70
b11 "
b11 %
b1000 &
b1110 '
b1101 #
b1101 $
#75
b11 "
b11 %
b1000 &
b1111 '
b1110 #
b1110 $
#80
b11 "
b11 %
b1000 &
b10000 '
b1111 #
b1111 $
#85
