$date
	Wed Dec  2 21:14:21 2020
$end
$version
	Icarus Verilog
$end
$timescale
	1s
$end
$scope module select8_tb $end
$var wire 8 ! s [7:0] $end
$var wire 1 " cout $end
$var reg 8 # a [7:0] $end
$var reg 8 $ b [7:0] $end
$var reg 1 % cin $end
$scope module CUT1 $end
$var wire 8 & a [7:0] $end
$var wire 8 ' b [7:0] $end
$var wire 1 % cin $end
$var wire 4 ( t [3:0] $end
$var wire 8 ) s [7:0] $end
$var wire 4 * r [3:0] $end
$var wire 1 " cout $end
$var wire 4 + c [3:0] $end
$scope module M1 $end
$var wire 1 , s $end
$var wire 4 - y [3:0] $end
$var wire 4 . b [3:0] $end
$var wire 4 / a [3:0] $end
$scope begin genblk1[0] $end
$scope module mux $end
$var wire 1 0 a $end
$var wire 1 1 b $end
$var wire 1 , s $end
$var wire 1 2 y $end
$upscope $end
$upscope $end
$scope begin genblk1[1] $end
$scope module mux $end
$var wire 1 3 a $end
$var wire 1 4 b $end
$var wire 1 , s $end
$var wire 1 5 y $end
$upscope $end
$upscope $end
$scope begin genblk1[2] $end
$scope module mux $end
$var wire 1 6 a $end
$var wire 1 7 b $end
$var wire 1 , s $end
$var wire 1 8 y $end
$upscope $end
$upscope $end
$scope begin genblk1[3] $end
$scope module mux $end
$var wire 1 9 a $end
$var wire 1 : b $end
$var wire 1 , s $end
$var wire 1 ; y $end
$upscope $end
$upscope $end
$upscope $end
$scope module M2 $end
$var wire 1 < a $end
$var wire 1 = b $end
$var wire 1 > s $end
$var wire 1 " y $end
$upscope $end
$scope module U1 $end
$var wire 4 ? a [3:0] $end
$var wire 4 @ b [3:0] $end
$var wire 1 A cin $end
$var reg 5 B c [4:0] $end
$var reg 1 C cout $end
$var reg 4 D g [3:0] $end
$var reg 4 E p [3:0] $end
$var reg 4 F s [3:0] $end
$scope begin $ivl_for_loop0 $end
$var integer 32 G i [31:0] $end
$upscope $end
$upscope $end
$scope module U2 $end
$var wire 4 H a [3:0] $end
$var wire 4 I b [3:0] $end
$var wire 1 J cin $end
$var reg 5 K c [4:0] $end
$var reg 1 L cout $end
$var reg 4 M g [3:0] $end
$var reg 4 N p [3:0] $end
$var reg 4 O s [3:0] $end
$scope begin $ivl_for_loop0 $end
$var integer 32 P i [31:0] $end
$upscope $end
$upscope $end
$scope module U3 $end
$var wire 4 Q a [3:0] $end
$var wire 4 R b [3:0] $end
$var wire 1 S cin $end
$var reg 5 T c [4:0] $end
$var reg 1 U cout $end
$var reg 4 V g [3:0] $end
$var reg 4 W p [3:0] $end
$var reg 4 X s [3:0] $end
$scope begin $ivl_for_loop0 $end
$var integer 32 Y i [31:0] $end
$upscope $end
$upscope $end
$upscope $end
$upscope $end
$enddefinitions $end
#0
$dumpvars
b100 Y
b0 X
b1111 W
b0 V
1U
b11111 T
1S
b0 R
b1111 Q
b100 P
b1111 O
b1111 N
b0 M
0L
b0 K
0J
b0 I
b1111 H
b100 G
b0 F
b1110 E
b1 D
1C
b11110 B
0A
b1 @
b1111 ?
1>
1=
0<
0;
0:
19
08
07
16
05
04
13
02
01
10
b1111 /
b0 .
b0 -
1,
b1010 +
b0 *
b0 )
b1111 (
b1 '
b11111111 &
0%
b1 $
b11111111 #
1"
b0 !
$end
#5
12
15
18
b1111 -
1;
0"
0,
0>
b1000 +
0C
b0 B
b11111111 !
b11111111 )
b1111 F
b1111 E
b0 D
b100 G
b0 @
b0 $
b0 '
#10
0;
08
05
b0 -
02
09
06
03
00
0=
11
b10 B
b110 !
b110 )
b110 F
b100 E
b1 D
b100 G
b0 (
b0 /
b0 O
b0 N
b100 P
b0 +
0U
b1 T
b1 *
b1 .
b1 X
b0 W
b100 Y
b1 @
b101 ?
b0 H
b0 Q
b1 $
b1 '
b101 #
b101 &
#15
b10 -
15
13
14
b10 (
b10 /
b10 O
b10 N
b100 P
b11 *
b11 .
b11 X
b10 W
b100 Y
b100010 !
b100010 )
b10 F
b0 E
b100 G
b10 I
b10 R
b1 ?
b100001 $
b100001 '
b1 #
b1 &
#20
1;
18
b1111 -
12
19
16
10
1=
04
01
b0 B
b11111111 !
b11111111 )
b1111 F
b1111 E
b0 D
b100 G
b1111 (
b1111 /
b1111 O
b1111 N
b100 P
b1000 +
1U
b11111 T
b0 *
b0 .
b0 X
b1111 W
b100 Y
b101 @
b101 I
b101 R
b1010 ?
b1010 H
b1010 Q
b1010101 $
b1010101 '
b10101010 #
b10101010 &
#25
02
05
08
b0 -
0;
1"
1,
1>
1C
b0 !
b0 )
b0 F
b100 G
b11111 B
1A
b1011 +
1%
#30
12
15
18
b1111 -
1;
0"
0,
0>
b100 P
b100 Y
0C
b1101 E
b11111101 !
b11111101 )
b1101 F
b100 G
b0 B
b0 @
b0 I
b0 R
b1101 ?
b1111 H
b1111 Q
0A
b0 $
b0 '
b11111101 #
b11111101 &
b1000 +
0%
#35
0;
08
05
b0 -
02
09
06
03
00
0=
11
b0 (
b0 /
b0 O
b0 N
b100 P
0U
b1 T
b1 *
b1 .
b1 X
b0 W
b100 Y
b11 !
b11 )
b11 F
b0 E
b1 D
b100 G
b11 B
b1 @
b1 ?
b0 H
b0 Q
1A
b1 $
b1 '
b1 #
b1 &
b1 +
1%
#40
