$date
	Thu Jan 14 16:57:14 2021
$end
$version
	Icarus Verilog
$end
$timescale
	1s
$end
$scope module fsm_tb $end
$var wire 1 ! z $end
$var reg 1 " a $end
$var reg 1 # b $end
$var reg 1 $ clk $end
$var reg 1 % reset $end
$scope module CUT1 $end
$var wire 1 " a $end
$var wire 1 # b $end
$var wire 1 $ clk $end
$var wire 1 % reset $end
$var reg 2 & next_state [1:0] $end
$var reg 2 ' state [1:0] $end
$var reg 1 ! z $end
$scope begin FSM_COMBINATIONAL_INPUT_LOGIC $end
$upscope $end
$scope begin FSM_SEQUENTIAL_LOGIC $end
$upscope $end
$scope begin MOORE_OUTPUT_LOGIC $end
$upscope $end
$upscope $end
$upscope $end
$enddefinitions $end
#0
$dumpvars
bx '
b0 &
0%
0$
0#
0"
0!
$end
#5
1$
#10
b1 &
b0 '
0$
1"
#15
1$
#20
b10 &
b1 '
0$
1%
#25
1$
#30
b1 &
b0 '
0$
0%
#35
1$
#40
b10 &
b1 '
0$
#45
1$
#50
b11 &
b10 '
0$
#55
1$
#60
1!
b11 '
b0 &
0$
0"
#65
1$
#70
0!
b10 &
b0 '
0$
1#
#75
1$
#80
b11 &
b10 '
0$
#85
1$
#90
1!
b11 '
b0 &
0$
0#
#95
1$
#100
0!
b10 &
b0 '
0$
1#
#105
1$
#110
b10 '
b11 &
0$
1"
0#
#115
1$
#120
1!
b11 '
b0 &
0$
0"
#125
1$
#130
0!
b1 &
b0 '
0$
1"
#135
1$
#140
b1 '
b11 &
0$
1#
0"
#145
1$
#150
1!
b11 '
b0 &
0$
0#
#155
1$
#160
0!
b1 &
b0 '
0$
1"
#165
1$
#170
b10 &
b1 '
0$
#175
1$
#180
b10 '
b11 &
0$
1#
0"
#185
1$
#190
1!
b11 '
b0 &
0$
0#
#195
1$
#200
0!
b0 '
0$
