$date
	Mon Nov 23 18:58:54 2020
$end
$version
	Icarus Verilog
$end
$timescale
	1s
$end
$scope module muxN_1_tb_a $end
$var wire 32 ! y [31:0] $end
$var reg 32 " a [31:0] $end
$var reg 32 # b [31:0] $end
$var reg 32 $ s [31:0] $end
$scope module CUT1 $end
$var wire 32 % a [31:0] $end
$var wire 32 & b [31:0] $end
$var wire 32 ' s [31:0] $end
$var wire 32 ( y [31:0] $end
$scope begin genblk1[0] $end
$scope module mux $end
$var wire 1 ) a $end
$var wire 1 * b $end
$var wire 1 + s $end
$var wire 1 , y $end
$upscope $end
$upscope $end
$scope begin genblk1[1] $end
$scope module mux $end
$var wire 1 - a $end
$var wire 1 . b $end
$var wire 1 / s $end
$var wire 1 0 y $end
$upscope $end
$upscope $end
$scope begin genblk1[2] $end
$scope module mux $end
$var wire 1 1 a $end
$var wire 1 2 b $end
$var wire 1 3 s $end
$var wire 1 4 y $end
$upscope $end
$upscope $end
$scope begin genblk1[3] $end
$scope module mux $end
$var wire 1 5 a $end
$var wire 1 6 b $end
$var wire 1 7 s $end
$var wire 1 8 y $end
$upscope $end
$upscope $end
$scope begin genblk1[4] $end
$scope module mux $end
$var wire 1 9 a $end
$var wire 1 : b $end
$var wire 1 ; s $end
$var wire 1 < y $end
$upscope $end
$upscope $end
$scope begin genblk1[5] $end
$scope module mux $end
$var wire 1 = a $end
$var wire 1 > b $end
$var wire 1 ? s $end
$var wire 1 @ y $end
$upscope $end
$upscope $end
$scope begin genblk1[6] $end
$scope module mux $end
$var wire 1 A a $end
$var wire 1 B b $end
$var wire 1 C s $end
$var wire 1 D y $end
$upscope $end
$upscope $end
$scope begin genblk1[7] $end
$scope module mux $end
$var wire 1 E a $end
$var wire 1 F b $end
$var wire 1 G s $end
$var wire 1 H y $end
$upscope $end
$upscope $end
$scope begin genblk1[8] $end
$scope module mux $end
$var wire 1 I a $end
$var wire 1 J b $end
$var wire 1 K s $end
$var wire 1 L y $end
$upscope $end
$upscope $end
$scope begin genblk1[9] $end
$scope module mux $end
$var wire 1 M a $end
$var wire 1 N b $end
$var wire 1 O s $end
$var wire 1 P y $end
$upscope $end
$upscope $end
$scope begin genblk1[10] $end
$scope module mux $end
$var wire 1 Q a $end
$var wire 1 R b $end
$var wire 1 S s $end
$var wire 1 T y $end
$upscope $end
$upscope $end
$scope begin genblk1[11] $end
$scope module mux $end
$var wire 1 U a $end
$var wire 1 V b $end
$var wire 1 W s $end
$var wire 1 X y $end
$upscope $end
$upscope $end
$scope begin genblk1[12] $end
$scope module mux $end
$var wire 1 Y a $end
$var wire 1 Z b $end
$var wire 1 [ s $end
$var wire 1 \ y $end
$upscope $end
$upscope $end
$scope begin genblk1[13] $end
$scope module mux $end
$var wire 1 ] a $end
$var wire 1 ^ b $end
$var wire 1 _ s $end
$var wire 1 ` y $end
$upscope $end
$upscope $end
$scope begin genblk1[14] $end
$scope module mux $end
$var wire 1 a a $end
$var wire 1 b b $end
$var wire 1 c s $end
$var wire 1 d y $end
$upscope $end
$upscope $end
$scope begin genblk1[15] $end
$scope module mux $end
$var wire 1 e a $end
$var wire 1 f b $end
$var wire 1 g s $end
$var wire 1 h y $end
$upscope $end
$upscope $end
$scope begin genblk1[16] $end
$scope module mux $end
$var wire 1 i a $end
$var wire 1 j b $end
$var wire 1 k s $end
$var wire 1 l y $end
$upscope $end
$upscope $end
$scope begin genblk1[17] $end
$scope module mux $end
$var wire 1 m a $end
$var wire 1 n b $end
$var wire 1 o s $end
$var wire 1 p y $end
$upscope $end
$upscope $end
$scope begin genblk1[18] $end
$scope module mux $end
$var wire 1 q a $end
$var wire 1 r b $end
$var wire 1 s s $end
$var wire 1 t y $end
$upscope $end
$upscope $end
$scope begin genblk1[19] $end
$scope module mux $end
$var wire 1 u a $end
$var wire 1 v b $end
$var wire 1 w s $end
$var wire 1 x y $end
$upscope $end
$upscope $end
$scope begin genblk1[20] $end
$scope module mux $end
$var wire 1 y a $end
$var wire 1 z b $end
$var wire 1 { s $end
$var wire 1 | y $end
$upscope $end
$upscope $end
$scope begin genblk1[21] $end
$scope module mux $end
$var wire 1 } a $end
$var wire 1 ~ b $end
$var wire 1 !" s $end
$var wire 1 "" y $end
$upscope $end
$upscope $end
$scope begin genblk1[22] $end
$scope module mux $end
$var wire 1 #" a $end
$var wire 1 $" b $end
$var wire 1 %" s $end
$var wire 1 &" y $end
$upscope $end
$upscope $end
$scope begin genblk1[23] $end
$scope module mux $end
$var wire 1 '" a $end
$var wire 1 (" b $end
$var wire 1 )" s $end
$var wire 1 *" y $end
$upscope $end
$upscope $end
$scope begin genblk1[24] $end
$scope module mux $end
$var wire 1 +" a $end
$var wire 1 ," b $end
$var wire 1 -" s $end
$var wire 1 ." y $end
$upscope $end
$upscope $end
$scope begin genblk1[25] $end
$scope module mux $end
$var wire 1 /" a $end
$var wire 1 0" b $end
$var wire 1 1" s $end
$var wire 1 2" y $end
$upscope $end
$upscope $end
$scope begin genblk1[26] $end
$scope module mux $end
$var wire 1 3" a $end
$var wire 1 4" b $end
$var wire 1 5" s $end
$var wire 1 6" y $end
$upscope $end
$upscope $end
$scope begin genblk1[27] $end
$scope module mux $end
$var wire 1 7" a $end
$var wire 1 8" b $end
$var wire 1 9" s $end
$var wire 1 :" y $end
$upscope $end
$upscope $end
$scope begin genblk1[28] $end
$scope module mux $end
$var wire 1 ;" a $end
$var wire 1 <" b $end
$var wire 1 =" s $end
$var wire 1 >" y $end
$upscope $end
$upscope $end
$scope begin genblk1[29] $end
$scope module mux $end
$var wire 1 ?" a $end
$var wire 1 @" b $end
$var wire 1 A" s $end
$var wire 1 B" y $end
$upscope $end
$upscope $end
$scope begin genblk1[30] $end
$scope module mux $end
$var wire 1 C" a $end
$var wire 1 D" b $end
$var wire 1 E" s $end
$var wire 1 F" y $end
$upscope $end
$upscope $end
$scope begin genblk1[31] $end
$scope module mux $end
$var wire 1 G" a $end
$var wire 1 H" b $end
$var wire 1 I" s $end
$var wire 1 J" y $end
$upscope $end
$upscope $end
$upscope $end
$upscope $end
$enddefinitions $end
#0
$dumpvars
0J"
0I"
0H"
0G"
1F"
1E"
1D"
0C"
0B"
0A"
0@"
0?"
0>"
1="
0<"
0;"
0:"
09"
18"
07"
16"
15"
14"
03"
12"
11"
10"
0/"
0."
0-"
1,"
0+"
0*"
1)"
0("
0'"
1&"
1%"
1$"
0#"
0""
0!"
0~
0}
1|
1{
1z
0y
1x
1w
1v
0u
1t
1s
1r
0q
0p
1o
0n
0m
0l
0k
0j
0i
0h
0g
0f
0e
0d
0c
1b
0a
1`
1_
1^
0]
1\
1[
1Z
0Y
0X
0W
1V
0U
0T
0S
0R
0Q
1P
1O
1N
0M
0L
0K
0J
0I
1H
1G
1F
0E
0D
0C
1B
0A
0@
1?
0>
0=
0<
1;
0:
09
08
17
06
05
04
03
02
01
10
1/
1.
0-
0,
0+
0*
0)
b1000110010111000011001010000010 (
b1010110110111100011001010111010 '
b1001111010111000111101011000010 &
b0 %
b1010110110111100011001010111010 $
b1001111010111000111101011000010 #
b0 "
b1000110010111000011001010000010 !
$end
#5
